{
	"title": "Региональный менеджер по продажам запасных частей",
	"info": [
		{
			"label": "Обязанности:",
			"list": [
				{"text": "Согласование, отслеживание и стимулирование выполнения планов продаж сервисных услуг, запчастей и аксессуаров, а также прочих плановых показателей послепродажной деятельности дилеров в соответствии с утвержденным бизнес-планом Дистрибьютора"},
				{"text": "Поиск новых возможностей для увеличения объемов продаж запчастей и аксессуаров"},
				{"text": "Контроль за соблюдением дилерами требований Дистрибьютора (дилерские стандарты, гарантийная политика и т.д.)"},
				{"text": "Контроль за своевременным осуществлением взаиморасчетов с дилерами"},
				{"text": "Составление ежемесячной отчетности"},
				{"text": "Анализ ключевых показателей работы Дилера на основании полученной информации от дилерской сети"},
				{"text": "Обработка входящих запросов дилеров"}
			]
		},
		{
			"label": "Требования:",
			"list": [
				{"text": "Высшее образование (желательно в автомобильной сфере)"},
				{"text": "Опыт в области оптовых продаж запчастей и аксессуаров от 3-х лет в грузовом или LCV сегменте, приветствуется опыт работы на СТО"},
				{"text": "Знание рынка ЗЧ грузовых а/м и LCV"},
				{"text": "Опыт проведения переговоров на уровне топ-менеджеров и собственников бизнеса"},
				{"text": "Знание английского языка (чтение технической литературы, разговорный)"},
				{"text": "Навыки личных продаж, навыки проведения презентаций"},
				{"text": "Умение работать в команде, нацеленность на результат"},
				{"text": "Продвинутый пользователь MS Office (Excel, PowerPoint), опыт аналитики в Excel"},
				{"text": "Готовность к командировкам"}
			]
		}
	]
}
