[
  {
    "link": "#",
    "label": "Доступная среда для Оренбурга",
    "img": "card_img.png",
    "date": "date"
  },
  {
    "link": "#",
    "label": "text",
    "img": "card_img.png",
    "date": "date"
  },
  {
    "link": "#",
    "label": "text",
    "img": "card_img.png",
    "date": "date"
  },
  {
    "link": "#",
    "label": "text",
    "img": "card_img.png",
    "date": "date"
  },
  {
    "link": "#",
    "label": "text",
    "img": "card_img.png",
    "date": "date"
  },
  {
    "link": "#",
    "label": "Доступная среда для Оренбурга",
    "img": "card_img.png",
    "date": "date"
  },
  {
    "link": "#",
    "label": "text",
    "img": "card_img.png",
    "date": "date"
  },
  {
    "link": "#",
    "label": "text",
    "img": "card_img.png",
    "date": "date"
  },
  {
    "link": "#",
    "label": "text",
    "img": "card_img.png",
    "date": "date"
  },
  {
    "link": "#",
    "label": "text",
    "img": "card_img.png",
    "date": "date"
  },
  {
    "link": "#",
    "label": "Доступная среда для Оренбурга",
    "img": "card_img.png",
    "date": "date"
  },
  {
    "link": "#",
    "label": "text",
    "img": "card_img.png",
    "date": "date"
  },
  {
    "link": "#",
    "label": "text",
    "img": "card_img.png",
    "date": "date"
  },
  {
    "link": "#",
    "label": "text",
    "img": "card_img.png",
    "date": "date"
  },
  {
    "link": "#",
    "label": "text",
    "img": "card_img.png",
    "date": "date"
  }
]
